{
  "project_info": {
    "project_number": "1068398400971",
    "firebase_url": "https://kashtahport-247808.firebaseio.com",
    "project_id": "kashtahport-247808",
    "storage_bucket": "kashtahport-247808.appspot.com"
  },
  "client": [
    {
      "client_info": {
        "mobilesdk_app_id": "1:1068398400971:android:d2027e0eb9c95a01",
        "android_client_info": {
          "package_name": "com.itwhiz4u.q8mercato.kashtahport"
        }
      },
      "oauth_client": [
        {
          "client_id": "1068398400971-feosae2o29hk44ndobsrqd7cvt63jtp9.apps.googleusercontent.com",
          "client_type": 3
        }
      ],
      "api_key": [
        {
          "current_key": "AIzaSyAe6Cch5Jc2rbgp7BCZHeV5lNTVksSAyjU"
        }
      ],
      "services": {
        "appinvite_service": {
          "other_platform_oauth_client": [
            {
              "client_id": "1068398400971-feosae2o29hk44ndobsrqd7cvt63jtp9.apps.googleusercontent.com",
              "client_type": 3
            },
            {
              "client_id": "1068398400971-psm46lv4n2d452tef6ocef7uu7b63bgt.apps.googleusercontent.com",
              "client_type": 2,
              "ios_info": {
                "bundle_id": "com.itwhiz4u.q8mercato.kashtahport",
                "app_store_id": "1467932974"
              }
            }
          ]
        }
      }
    }
  ],
  "configuration_version": "1"
}